{
	"iisSettings": {
		"windowsAuthentication": false,
		"anonymousAuthentication": true,
		"iisExpress": {
			"applicationUrl": "http://localhost:58560",
			"sslPort": 44385
		}
	},
	"$schema": "http://json.schemastore.org/launchsettings.json",
	"profiles": {
		"IIS Express": {
			"commandName": "IISExpress",
			"launchBrowser": true,
			"launchUrl": "api/shop/product/all",
			"environmentVariables": {
				"ASPNETCORE_ENVIRONMENT": "Production"
			}
		},
		"Blazor.Shop.Api": {
			"commandName": "Project",
			"launchBrowser": true,
			"launchUrl": "api/shop/product/all",
			"environmentVariables": {
				"ASPNETCORE_ENVIRONMENT": "Development"
			},
			"applicationUrl": "http://localhost:5000"
		},
		"Docker": {
			"commandName": "Docker",
			"launchBrowser": true,
			"launchUrl": "{Scheme}://{ServiceHost}:{ServicePort}/weatherforecast",
			"publishAllPorts": true,
			"useSSL": true
		}
	}
}